{"frames": {

"idle/survivor-idle_handgun_00":
{
	"frame": {"x":1293,"y":158,"w":212,"h":156},
	"rotated": false,
	"trimmed": true,
	"spriteSourceSize": {"x":32,"y":39,"w":212,"h":156},
	"sourceSize": {"w":253,"h":216}
},
"idle/survivor-idle_handgun_01":
{
	"frame": {"x":1507,"y":158,"w":212,"h":156},
	"rotated": false,
	"trimmed": true,
	"spriteSourceSize": {"x":32,"y":39,"w":212,"h":156},
	"sourceSize": {"w":253,"h":216}
},
"idle/survivor-idle_handgun_02":
{
	"frame": {"x":215,"y":314,"w":212,"h":156},
	"rotated": false,
	"trimmed": true,
	"spriteSourceSize": {"x":32,"y":38,"w":212,"h":156},
	"sourceSize": {"w":253,"h":216}
},
"idle/survivor-idle_handgun_03":
{
	"frame": {"x":429,"y":314,"w":211,"h":156},
	"rotated": false,
	"trimmed": true,
	"spriteSourceSize": {"x":32,"y":38,"w":211,"h":156},
	"sourceSize": {"w":253,"h":216}
},
"idle/survivor-idle_handgun_04":
{
	"frame": {"x":1,"y":157,"w":211,"h":155},
	"rotated": false,
	"trimmed": true,
	"spriteSourceSize": {"x":32,"y":38,"w":211,"h":155},
	"sourceSize": {"w":253,"h":216}
},
"idle/survivor-idle_handgun_05":
{
	"frame": {"x":214,"y":157,"w":211,"h":155},
	"rotated": false,
	"trimmed": true,
	"spriteSourceSize": {"x":32,"y":38,"w":211,"h":155},
	"sourceSize": {"w":253,"h":216}
},
"idle/survivor-idle_handgun_06":
{
	"frame": {"x":640,"y":1,"w":211,"h":154},
	"rotated": false,
	"trimmed": true,
	"spriteSourceSize": {"x":32,"y":38,"w":211,"h":154},
	"sourceSize": {"w":253,"h":216}
},
"idle/survivor-idle_handgun_07":
{
	"frame": {"x":427,"y":157,"w":211,"h":155},
	"rotated": false,
	"trimmed": true,
	"spriteSourceSize": {"x":32,"y":37,"w":211,"h":155},
	"sourceSize": {"w":253,"h":216}
},
"idle/survivor-idle_handgun_08":
{
	"frame": {"x":640,"y":157,"w":211,"h":155},
	"rotated": false,
	"trimmed": true,
	"spriteSourceSize": {"x":32,"y":37,"w":211,"h":155},
	"sourceSize": {"w":253,"h":216}
},
"idle/survivor-idle_handgun_09":
{
	"frame": {"x":853,"y":1,"w":211,"h":154},
	"rotated": false,
	"trimmed": true,
	"spriteSourceSize": {"x":32,"y":37,"w":211,"h":154},
	"sourceSize": {"w":253,"h":216}
},
"idle/survivor-idle_handgun_10":
{
	"frame": {"x":1,"y":1,"w":211,"h":154},
	"rotated": false,
	"trimmed": true,
	"spriteSourceSize": {"x":32,"y":37,"w":211,"h":154},
	"sourceSize": {"w":253,"h":216}
},
"idle/survivor-idle_handgun_11":
{
	"frame": {"x":214,"y":1,"w":211,"h":154},
	"rotated": false,
	"trimmed": true,
	"spriteSourceSize": {"x":32,"y":37,"w":211,"h":154},
	"sourceSize": {"w":253,"h":216}
},
"idle/survivor-idle_handgun_12":
{
	"frame": {"x":1066,"y":1,"w":211,"h":155},
	"rotated": false,
	"trimmed": true,
	"spriteSourceSize": {"x":32,"y":37,"w":211,"h":155},
	"sourceSize": {"w":253,"h":216}
},
"idle/survivor-idle_handgun_13":
{
	"frame": {"x":1279,"y":1,"w":211,"h":155},
	"rotated": false,
	"trimmed": true,
	"spriteSourceSize": {"x":32,"y":37,"w":211,"h":155},
	"sourceSize": {"w":253,"h":216}
},
"idle/survivor-idle_handgun_14":
{
	"frame": {"x":427,"y":1,"w":211,"h":154},
	"rotated": false,
	"trimmed": true,
	"spriteSourceSize": {"x":32,"y":38,"w":211,"h":154},
	"sourceSize": {"w":253,"h":216}
},
"idle/survivor-idle_handgun_15":
{
	"frame": {"x":1492,"y":1,"w":211,"h":155},
	"rotated": false,
	"trimmed": true,
	"spriteSourceSize": {"x":32,"y":38,"w":211,"h":155},
	"sourceSize": {"w":253,"h":216}
},
"idle/survivor-idle_handgun_16":
{
	"frame": {"x":1705,"y":1,"w":211,"h":155},
	"rotated": false,
	"trimmed": true,
	"spriteSourceSize": {"x":32,"y":38,"w":211,"h":155},
	"sourceSize": {"w":253,"h":216}
},
"idle/survivor-idle_handgun_17":
{
	"frame": {"x":853,"y":157,"w":211,"h":156},
	"rotated": false,
	"trimmed": true,
	"spriteSourceSize": {"x":32,"y":38,"w":211,"h":156},
	"sourceSize": {"w":253,"h":216}
},
"idle/survivor-idle_handgun_18":
{
	"frame": {"x":1721,"y":158,"w":212,"h":156},
	"rotated": false,
	"trimmed": true,
	"spriteSourceSize": {"x":32,"y":38,"w":212,"h":156},
	"sourceSize": {"w":253,"h":216}
},
"idle/survivor-idle_handgun_19":
{
	"frame": {"x":1,"y":314,"w":212,"h":156},
	"rotated": false,
	"trimmed": true,
	"spriteSourceSize": {"x":32,"y":39,"w":212,"h":156},
	"sourceSize": {"w":253,"h":216}
},
"meleeattack/survivor-meleeattack_handgun_00":
{
	"frame": {"x":846,"y":315,"w":212,"h":156},
	"rotated": false,
	"trimmed": true,
	"spriteSourceSize": {"x":39,"y":43,"w":212,"h":156},
	"sourceSize": {"w":291,"h":256}
},
"meleeattack/survivor-meleeattack_handgun_01":
{
	"frame": {"x":1,"y":949,"w":206,"h":163},
	"rotated": false,
	"trimmed": true,
	"spriteSourceSize": {"x":38,"y":42,"w":206,"h":163},
	"sourceSize": {"w":291,"h":256}
},
"meleeattack/survivor-meleeattack_handgun_02":
{
	"frame": {"x":621,"y":1117,"w":190,"h":175},
	"rotated": false,
	"trimmed": true,
	"spriteSourceSize": {"x":38,"y":41,"w":190,"h":175},
	"sourceSize": {"w":291,"h":256}
},
"meleeattack/survivor-meleeattack_handgun_03":
{
	"frame": {"x":978,"y":1121,"w":171,"h":183},
	"rotated": false,
	"trimmed": true,
	"spriteSourceSize": {"x":35,"y":41,"w":171,"h":183},
	"sourceSize": {"w":291,"h":256}
},
"meleeattack/survivor-meleeattack_handgun_04":
{
	"frame": {"x":1151,"y":1121,"w":157,"h":183},
	"rotated": false,
	"trimmed": true,
	"spriteSourceSize": {"x":29,"y":41,"w":157,"h":183},
	"sourceSize": {"w":291,"h":256}
},
"meleeattack/survivor-meleeattack_handgun_05":
{
	"frame": {"x":813,"y":1120,"w":163,"h":180},
	"rotated": false,
	"trimmed": true,
	"spriteSourceSize": {"x":22,"y":41,"w":163,"h":180},
	"sourceSize": {"w":291,"h":256}
},
"meleeattack/survivor-meleeattack_handgun_06":
{
	"frame": {"x":1505,"y":1126,"w":183,"h":191},
	"rotated": false,
	"trimmed": true,
	"spriteSourceSize": {"x":32,"y":45,"w":183,"h":191},
	"sourceSize": {"w":291,"h":256}
},
"meleeattack/survivor-meleeattack_handgun_07":
{
	"frame": {"x":427,"y":950,"w":244,"h":163},
	"rotated": false,
	"trimmed": true,
	"spriteSourceSize": {"x":33,"y":51,"w":244,"h":163},
	"sourceSize": {"w":291,"h":256}
},
"meleeattack/survivor-meleeattack_handgun_08":
{
	"frame": {"x":1103,"y":953,"w":213,"h":166},
	"rotated": false,
	"trimmed": true,
	"spriteSourceSize": {"x":40,"y":41,"w":213,"h":166},
	"sourceSize": {"w":291,"h":256}
},
"meleeattack/survivor-meleeattack_handgun_09":
{
	"frame": {"x":1690,"y":1128,"w":187,"h":192},
	"rotated": false,
	"trimmed": true,
	"spriteSourceSize": {"x":47,"y":10,"w":187,"h":192},
	"sourceSize": {"w":291,"h":256}
},
"meleeattack/survivor-meleeattack_handgun_10":
{
	"frame": {"x":1310,"y":1122,"w":193,"h":184},
	"rotated": false,
	"trimmed": true,
	"spriteSourceSize": {"x":44,"y":18,"w":193,"h":184},
	"sourceSize": {"w":291,"h":256}
},
"meleeattack/survivor-meleeattack_handgun_11":
{
	"frame": {"x":1,"y":1114,"w":196,"h":171},
	"rotated": false,
	"trimmed": true,
	"spriteSourceSize": {"x":41,"y":36,"w":196,"h":171},
	"sourceSize": {"w":291,"h":256}
},
"meleeattack/survivor-meleeattack_handgun_12":
{
	"frame": {"x":209,"y":949,"w":216,"h":163},
	"rotated": false,
	"trimmed": true,
	"spriteSourceSize": {"x":38,"y":45,"w":216,"h":163},
	"sourceSize": {"w":291,"h":256}
},
"meleeattack/survivor-meleeattack_handgun_13":
{
	"frame": {"x":1066,"y":158,"w":225,"h":155},
	"rotated": false,
	"trimmed": true,
	"spriteSourceSize": {"x":36,"y":51,"w":225,"h":155},
	"sourceSize": {"w":291,"h":256}
},
"meleeattack/survivor-meleeattack_handgun_14":
{
	"frame": {"x":1060,"y":315,"w":218,"h":156},
	"rotated": false,
	"trimmed": true,
	"spriteSourceSize": {"x":39,"y":45,"w":218,"h":156},
	"sourceSize": {"w":291,"h":256}
},
"move/survivor-move_handgun_00":
{
	"frame": {"x":1280,"y":316,"w":212,"h":156},
	"rotated": false,
	"trimmed": true,
	"spriteSourceSize": {"x":37,"y":38,"w":212,"h":156},
	"sourceSize": {"w":258,"h":220}
},
"move/survivor-move_handgun_01":
{
	"frame": {"x":1494,"y":316,"w":212,"h":156},
	"rotated": false,
	"trimmed": true,
	"spriteSourceSize": {"x":37,"y":38,"w":212,"h":156},
	"sourceSize": {"w":258,"h":220}
},
"move/survivor-move_handgun_02":
{
	"frame": {"x":429,"y":472,"w":212,"h":156},
	"rotated": false,
	"trimmed": true,
	"spriteSourceSize": {"x":37,"y":38,"w":212,"h":156},
	"sourceSize": {"w":258,"h":220}
},
"move/survivor-move_handgun_03":
{
	"frame": {"x":643,"y":473,"w":212,"h":156},
	"rotated": false,
	"trimmed": true,
	"spriteSourceSize": {"x":36,"y":39,"w":212,"h":156},
	"sourceSize": {"w":258,"h":220}
},
"move/survivor-move_handgun_04":
{
	"frame": {"x":430,"y":631,"w":212,"h":157},
	"rotated": false,
	"trimmed": true,
	"spriteSourceSize": {"x":36,"y":39,"w":212,"h":157},
	"sourceSize": {"w":258,"h":220}
},
"move/survivor-move_handgun_05":
{
	"frame": {"x":1,"y":789,"w":213,"h":158},
	"rotated": false,
	"trimmed": true,
	"spriteSourceSize": {"x":35,"y":39,"w":213,"h":158},
	"sourceSize": {"w":258,"h":220}
},
"move/survivor-move_handgun_06":
{
	"frame": {"x":644,"y":631,"w":213,"h":157},
	"rotated": false,
	"trimmed": true,
	"spriteSourceSize": {"x":35,"y":40,"w":213,"h":157},
	"sourceSize": {"w":258,"h":220}
},
"move/survivor-move_handgun_07":
{
	"frame": {"x":430,"y":790,"w":214,"h":158},
	"rotated": false,
	"trimmed": true,
	"spriteSourceSize": {"x":34,"y":40,"w":214,"h":158},
	"sourceSize": {"w":258,"h":220}
},
"move/survivor-move_handgun_08":
{
	"frame": {"x":646,"y":790,"w":214,"h":158},
	"rotated": false,
	"trimmed": true,
	"spriteSourceSize": {"x":34,"y":41,"w":214,"h":158},
	"sourceSize": {"w":258,"h":220}
},
"move/survivor-move_handgun_09":
{
	"frame": {"x":862,"y":792,"w":214,"h":158},
	"rotated": false,
	"trimmed": true,
	"spriteSourceSize": {"x":34,"y":41,"w":214,"h":158},
	"sourceSize": {"w":258,"h":220}
},
"move/survivor-move_handgun_10":
{
	"frame": {"x":1078,"y":792,"w":214,"h":159},
	"rotated": false,
	"trimmed": true,
	"spriteSourceSize": {"x":34,"y":41,"w":214,"h":159},
	"sourceSize": {"w":258,"h":220}
},
"move/survivor-move_handgun_11":
{
	"frame": {"x":1073,"y":632,"w":214,"h":158},
	"rotated": false,
	"trimmed": true,
	"spriteSourceSize": {"x":34,"y":41,"w":214,"h":158},
	"sourceSize": {"w":258,"h":220}
},
"move/survivor-move_handgun_12":
{
	"frame": {"x":1289,"y":632,"w":214,"h":158},
	"rotated": false,
	"trimmed": true,
	"spriteSourceSize": {"x":34,"y":41,"w":214,"h":158},
	"sourceSize": {"w":258,"h":220}
},
"move/survivor-move_handgun_13":
{
	"frame": {"x":1505,"y":632,"w":214,"h":158},
	"rotated": false,
	"trimmed": true,
	"spriteSourceSize": {"x":34,"y":40,"w":214,"h":158},
	"sourceSize": {"w":258,"h":220}
},
"move/survivor-move_handgun_14":
{
	"frame": {"x":1,"y":630,"w":213,"h":157},
	"rotated": false,
	"trimmed": true,
	"spriteSourceSize": {"x":35,"y":40,"w":213,"h":157},
	"sourceSize": {"w":258,"h":220}
},
"move/survivor-move_handgun_15":
{
	"frame": {"x":1721,"y":632,"w":213,"h":158},
	"rotated": false,
	"trimmed": true,
	"spriteSourceSize": {"x":35,"y":39,"w":213,"h":158},
	"sourceSize": {"w":258,"h":220}
},
"move/survivor-move_handgun_16":
{
	"frame": {"x":216,"y":630,"w":212,"h":157},
	"rotated": false,
	"trimmed": true,
	"spriteSourceSize": {"x":36,"y":39,"w":212,"h":157},
	"sourceSize": {"w":258,"h":220}
},
"move/survivor-move_handgun_17":
{
	"frame": {"x":1708,"y":316,"w":212,"h":156},
	"rotated": false,
	"trimmed": true,
	"spriteSourceSize": {"x":36,"y":39,"w":212,"h":156},
	"sourceSize": {"w":258,"h":220}
},
"move/survivor-move_handgun_18":
{
	"frame": {"x":1,"y":472,"w":212,"h":156},
	"rotated": false,
	"trimmed": true,
	"spriteSourceSize": {"x":37,"y":38,"w":212,"h":156},
	"sourceSize": {"w":258,"h":220}
},
"move/survivor-move_handgun_19":
{
	"frame": {"x":215,"y":472,"w":212,"h":156},
	"rotated": false,
	"trimmed": true,
	"spriteSourceSize": {"x":37,"y":38,"w":212,"h":156},
	"sourceSize": {"w":258,"h":220}
},
"reload/survivor-reload_handgun_00":
{
	"frame": {"x":857,"y":473,"w":212,"h":156},
	"rotated": false,
	"trimmed": true,
	"spriteSourceSize": {"x":36,"y":38,"w":212,"h":156},
	"sourceSize": {"w":260,"h":230}
},
"reload/survivor-reload_handgun_01":
{
	"frame": {"x":859,"y":631,"w":212,"h":157},
	"rotated": false,
	"trimmed": true,
	"spriteSourceSize": {"x":36,"y":38,"w":212,"h":157},
	"sourceSize": {"w":260,"h":230}
},
"reload/survivor-reload_handgun_02":
{
	"frame": {"x":216,"y":789,"w":212,"h":158},
	"rotated": false,
	"trimmed": true,
	"spriteSourceSize": {"x":36,"y":39,"w":212,"h":158},
	"sourceSize": {"w":260,"h":230}
},
"reload/survivor-reload_handgun_03":
{
	"frame": {"x":1507,"y":792,"w":214,"h":160},
	"rotated": false,
	"trimmed": true,
	"spriteSourceSize": {"x":35,"y":39,"w":214,"h":160},
	"sourceSize": {"w":260,"h":230}
},
"reload/survivor-reload_handgun_04":
{
	"frame": {"x":1723,"y":792,"w":214,"h":162},
	"rotated": false,
	"trimmed": true,
	"spriteSourceSize": {"x":35,"y":40,"w":214,"h":162},
	"sourceSize": {"w":260,"h":230}
},
"reload/survivor-reload_handgun_05":
{
	"frame": {"x":885,"y":953,"w":216,"h":165},
	"rotated": false,
	"trimmed": true,
	"spriteSourceSize": {"x":34,"y":40,"w":216,"h":165},
	"sourceSize": {"w":260,"h":230}
},
"reload/survivor-reload_handgun_06":
{
	"frame": {"x":1529,"y":956,"w":213,"h":168},
	"rotated": false,
	"trimmed": true,
	"spriteSourceSize": {"x":35,"y":40,"w":213,"h":168},
	"sourceSize": {"w":260,"h":230}
},
"reload/survivor-reload_handgun_07":
{
	"frame": {"x":199,"y":1114,"w":210,"h":171},
	"rotated": false,
	"trimmed": true,
	"spriteSourceSize": {"x":35,"y":40,"w":210,"h":171},
	"sourceSize": {"w":260,"h":230}
},
"reload/survivor-reload_handgun_08":
{
	"frame": {"x":411,"y":1115,"w":208,"h":174},
	"rotated": false,
	"trimmed": true,
	"spriteSourceSize": {"x":35,"y":39,"w":208,"h":174},
	"sourceSize": {"w":260,"h":230}
},
"reload/survivor-reload_handgun_09":
{
	"frame": {"x":1744,"y":956,"w":209,"h":170},
	"rotated": false,
	"trimmed": true,
	"spriteSourceSize": {"x":35,"y":39,"w":209,"h":170},
	"sourceSize": {"w":260,"h":230}
},
"reload/survivor-reload_handgun_10":
{
	"frame": {"x":1318,"y":954,"w":209,"h":166},
	"rotated": false,
	"trimmed": true,
	"spriteSourceSize": {"x":36,"y":39,"w":209,"h":166},
	"sourceSize": {"w":260,"h":230}
},
"reload/survivor-reload_handgun_11":
{
	"frame": {"x":673,"y":952,"w":210,"h":163},
	"rotated": false,
	"trimmed": true,
	"spriteSourceSize": {"x":36,"y":38,"w":210,"h":163},
	"sourceSize": {"w":260,"h":230}
},
"reload/survivor-reload_handgun_12":
{
	"frame": {"x":1294,"y":792,"w":211,"h":159},
	"rotated": false,
	"trimmed": true,
	"spriteSourceSize": {"x":36,"y":38,"w":211,"h":159},
	"sourceSize": {"w":260,"h":230}
},
"reload/survivor-reload_handgun_13":
{
	"frame": {"x":1280,"y":474,"w":212,"h":156},
	"rotated": false,
	"trimmed": true,
	"spriteSourceSize": {"x":36,"y":38,"w":212,"h":156},
	"sourceSize": {"w":260,"h":230}
},
"reload/survivor-reload_handgun_14":
{
	"frame": {"x":1494,"y":474,"w":211,"h":156},
	"rotated": false,
	"trimmed": true,
	"spriteSourceSize": {"x":36,"y":38,"w":211,"h":156},
	"sourceSize": {"w":260,"h":230}
},
"shoot/survivor-shoot_handgun_00":
{
	"frame": {"x":1707,"y":474,"w":212,"h":156},
	"rotated": false,
	"trimmed": true,
	"spriteSourceSize": {"x":34,"y":38,"w":212,"h":156},
	"sourceSize": {"w":255,"h":215}
},
"shoot/survivor-shoot_handgun_01":
{
	"frame": {"x":642,"y":314,"w":202,"h":156},
	"rotated": false,
	"trimmed": true,
	"spriteSourceSize": {"x":32,"y":38,"w":202,"h":156},
	"sourceSize": {"w":255,"h":215}
},
"shoot/survivor-shoot_handgun_02":
{
	"frame": {"x":1071,"y":473,"w":207,"h":156},
	"rotated": false,
	"trimmed": true,
	"spriteSourceSize": {"x":33,"y":38,"w":207,"h":156},
	"sourceSize": {"w":255,"h":215}
}},
"meta": {
	"app": "http://www.codeandweb.com/texturepacker",
	"version": "1.0",
	"image": "handgun",
	"format": "RGBA8888",
	"size": {"w":1954,"h":1321},
	"scale": "1",
	"smartupdate": "$TexturePacker:SmartUpdate:8bc6c71c6466622350bfcfc3b5c2148d:f43215706e96abf4915c1f167742c4bc:b24dc3a2956c21e0aeb526ecd7aa8d12$"
}
}
